<svg xmlns="http://www.w3.org/2000/svg" viewBox="771 924 51.111 40">
  <defs>
    <style>
      .cls-1 {
        fill: #ff9800;
      }

      .cls-2 {
        fill: #ef6c00;
      }
    </style>
  </defs>
  <g id="library" transform="translate(111 558)">
    <g id="Group_143" data-name="Group 143" transform="translate(660 366)">
      <rect id="Rectangle_282" data-name="Rectangle 282" class="cls-1" width="51.111" height="2.143" transform="translate(0 37.857)"/>
      <rect id="Rectangle_283" data-name="Rectangle 283" class="cls-1" width="4.289" height="17.5" transform="translate(26.807 15.714)"/>
      <rect id="Rectangle_284" data-name="Rectangle 284" class="cls-1" width="4.646" height="17.5" transform="translate(33.24 15.714)"/>
      <rect id="Rectangle_285" data-name="Rectangle 285" class="cls-1" width="4.289" height="17.5" transform="translate(40.031 15.714)"/>
      <rect id="Rectangle_286" data-name="Rectangle 286" class="cls-1" width="4.289" height="17.5" transform="translate(20.016 15.714)"/>
      <rect id="Rectangle_287" data-name="Rectangle 287" class="cls-1" width="4.646" height="17.5" transform="translate(13.225 15.714)"/>
      <rect id="Rectangle_288" data-name="Rectangle 288" class="cls-1" width="4.289" height="17.5" transform="translate(6.791 15.714)"/>
      <path id="Path_565" data-name="Path 565" class="cls-1" d="M47.089,17.214H4.556V14L26,4,47.089,14Z" transform="translate(-0.267 -4)"/>
      <rect id="Rectangle_289" data-name="Rectangle 289" class="cls-1" width="42.533" height="2.5" transform="translate(4.289 33.214)"/>
    </g>
    <g id="Group_144" data-name="Group 144" transform="translate(662.145 371.714)">
      <rect id="Rectangle_290" data-name="Rectangle 290" class="cls-2" width="4.289" height="2.5" transform="translate(24.662 7.5)"/>
      <rect id="Rectangle_291" data-name="Rectangle 291" class="cls-2" width="4.646" height="2.5" transform="translate(31.096 7.5)"/>
      <rect id="Rectangle_292" data-name="Rectangle 292" class="cls-2" width="4.289" height="2.5" transform="translate(37.887 7.5)"/>
      <rect id="Rectangle_293" data-name="Rectangle 293" class="cls-2" width="4.289" height="2.5" transform="translate(17.871 7.5)"/>
      <rect id="Rectangle_294" data-name="Rectangle 294" class="cls-2" width="4.646" height="2.5" transform="translate(11.08 7.5)"/>
      <rect id="Rectangle_295" data-name="Rectangle 295" class="cls-2" width="4.289" height="2.5" transform="translate(4.646 7.5)"/>
      <rect id="Rectangle_296" data-name="Rectangle 296" class="cls-2" width="46.822" height="2.143" transform="translate(0 30)"/>
      <ellipse id="Ellipse_157" data-name="Ellipse 157" class="cls-2" cx="2.323" cy="2.143" rx="2.323" ry="2.143" transform="translate(21.088 0)"/>
    </g>
  </g>
</svg>
