<svg xmlns="http://www.w3.org/2000/svg" viewBox="713 1712 37.895 40">
  <defs>
    <style>
      .cls-1 {
        fill: #3f51b5;
      }

      .cls-2 {
        fill: #cfd8dc;
      }

      .cls-3 {
        fill: #90a4ae;
      }

      .cls-4 {
        fill: #448aff;
      }

      .cls-5 {
        fill: #00bcd4;
      }
    </style>
  </defs>
  <g id="timeline" transform="translate(706 1707)">
    <path id="Path_961" data-name="Path 961" class="cls-1" d="M43.4,29.526H21.084a2.078,2.078,0,0,1-1.474-.632L15.716,25a1.018,1.018,0,0,1,0-1.474l3.895-3.895A2.078,2.078,0,0,1,21.084,19H43.4a.994.994,0,0,1,1.053,1.053v8.421A.994.994,0,0,1,43.4,29.526Z" transform="translate(0.442 0.737)"/>
    <rect id="Rectangle_463" data-name="Rectangle 463" class="cls-2" width="2.105" height="37.895" transform="translate(9.105 6.053)"/>
    <g id="Group_247" data-name="Group 247" transform="translate(7 7.105)">
      <ellipse id="Ellipse_305" data-name="Ellipse 305" class="cls-3" cx="3.158" cy="3.158" rx="3.158" ry="3.158"/>
      <ellipse id="Ellipse_306" data-name="Ellipse 306" class="cls-3" cx="3.158" cy="3.158" rx="3.158" ry="3.158" transform="translate(0 14.737)"/>
      <ellipse id="Ellipse_307" data-name="Ellipse 307" class="cls-3" cx="3.158" cy="3.158" rx="3.158" ry="3.158" transform="translate(0 29.474)"/>
    </g>
    <path id="Path_962" data-name="Path 962" class="cls-4" d="M34.979,43.526H21.084a2.078,2.078,0,0,1-1.474-.632L15.716,39a1.018,1.018,0,0,1,0-1.474l3.895-3.895A2.078,2.078,0,0,1,21.084,33H34.979a1,1,0,0,1,1.053,1.053v8.421A1,1,0,0,1,34.979,43.526Z" transform="translate(0.442 1.474)"/>
    <path id="Path_963" data-name="Path 963" class="cls-5" d="M36.032,15.526H21.084a2.078,2.078,0,0,1-1.474-.632L15.716,11a1.018,1.018,0,0,1,0-1.474l3.895-3.895A2.078,2.078,0,0,1,21.084,5H36.032a1,1,0,0,1,1.053,1.053v8.421A1,1,0,0,1,36.032,15.526Z" transform="translate(0.442 0)"/>
  </g>
</svg>
